...................
----------------------------------------------------------------------
Ran 19 tests in 0.456s

OK
Name             Stmts   Miss Branch BrPart  Cover   Missing
------------------------------------------------------------
Collatz.py          38      0     16      1    98%   33->45
TestCollatz.py      83      0      0      0   100%
------------------------------------------------------------
TOTAL              121      0     16      1    99%
